{
  "currentPage": {
    "url": "/another",
    "params": []
  },
  "template": {
    "familyPath": "cells-template-paper-header-panel",
    "tag": "cells-template-paper-header-panel",
    "properties": {
      "mode": "seamed",
      "zones": [
        "app__header",
        "app__main",
        "app__footer"
      ]
    }
  },
  "components": [
    {
      "zone": "app__main",
      "familyPath": "../elements/another-page",
      "tag": "another-page",
      "properties": {
        "cellsConnections": {
          "in": {
            "dm-example-channel": {
              "bind": "users"
            }
          },
          "out": {
            "foobar-channel": {
              "bind": "home-event",
              "link": {
                "page": "login"
              }
            }
          },
          "params": {
            "greeting": "globalGreeting",
            "persona": "globalPerson",
            "item-id": "itemId"
          }
        }
      }
    },
    {
      "zone": "app__main",
      "type": "CC",
      "familyPath": "../elements/example-cross-component",
      "tag": "example-cross-component",
      "properties": {
        "cellsConnections": {
          "in": {},
          "out": {}
        }
      }
    },
    {
      "zone": "app__main",
      "type": "DM",
      "familyPath": "../elements/example-data-manager",
      "tag": "example-data-manager",
      "properties": {
        "cellsConnections": {
          "out": {
            "dm-example-channel": {
              "bind": "users-changed"
            }
          }
        }
      }
    }
  ],
  "pages": []
}
